src/cpu_dump.vcd
$date
	Thu Nov 13 13:32:05 2025
$end
$version
	Icarus Verilog
$end
$timescale
	1ps
$end
$scope module tb_top $end
$var wire 32 ! debug_pc [31:0] $end
$var wire 32 " debug_instruction [31:0] $end
$var wire 32 # debug_alu_result [31:0] $end
$var reg 1 $ clk $end
$var reg 1 % rst $end
$scope module DUT $end
$var wire 1 $ clk $end
$var wire 32 & debug_alu_result [31:0] $end
$var wire 32 ' debug_instruction [31:0] $end
$var wire 32 ( debug_pc [31:0] $end
$var wire 1 ) ex_branch_taken $end
$var wire 1 * id_ex_enable $end
$var wire 1 + id_ex_flush $end
$var wire 1 , if_id_flush $end
$var wire 1 - muldiv_start $end
$var wire 1 % rst $end
$var wire 32 . wb_read_data [31:0] $end
$var wire 5 / wb_rd [4:0] $end
$var wire 32 0 wb_data [31:0] $end
$var wire 32 1 wb_alu_result [31:0] $end
$var wire 1 2 wb_RegWrite $end
$var wire 1 3 wb_MR $end
$var wire 1 4 stall $end
$var wire 32 5 rs2_data [31:0] $end
$var wire 32 6 rs1_data [31:0] $end
$var wire 1 7 pc_write $end
$var wire 32 8 pc [31:0] $end
$var wire 32 9 next_pc [31:0] $end
$var wire 32 : muldiv_result [31:0] $end
$var wire 1 ; muldiv_ready $end
$var wire 3 < muldiv_op [2:0] $end
$var wire 1 = muldiv_busy $end
$var wire 32 > mem_rs2_val [31:0] $end
$var wire 32 ? mem_read_data [31:0] $end
$var wire 5 @ mem_rd [4:0] $end
$var wire 32 A mem_branch_target [31:0] $end
$var wire 1 B mem_branch_taken $end
$var wire 1 C mem_branch $end
$var wire 32 D mem_alu_result [31:0] $end
$var wire 1 E mem_RW $end
$var wire 1 F mem_MW $end
$var wire 1 G mem_MR $end
$var wire 1 H is_muldiv $end
$var wire 32 I if_instr [31:0] $end
$var wire 1 J if_id_write $end
$var wire 5 K id_rs2 [4:0] $end
$var wire 5 L id_rs1 [4:0] $end
$var wire 5 M id_rd [4:0] $end
$var wire 32 N id_pc [31:0] $end
$var wire 7 O id_opcode [6:0] $end
$var wire 32 P id_instr [31:0] $end
$var wire 32 Q id_imm [31:0] $end
$var wire 7 R id_funct7 [6:0] $end
$var wire 3 S id_funct3 [2:0] $end
$var wire 1 T id_ex_flush_sig $end
$var wire 2 U fwdB [1:0] $end
$var wire 2 V fwdA [1:0] $end
$var wire 32 W ex_rs2_val [31:0] $end
$var wire 5 X ex_rs2 [4:0] $end
$var wire 32 Y ex_rs1_val [31:0] $end
$var wire 5 Z ex_rs1 [4:0] $end
$var wire 5 [ ex_rd [4:0] $end
$var wire 32 \ ex_pc [31:0] $end
$var wire 3 ] ex_muldiv_op [2:0] $end
$var wire 1 ^ ex_is_muldiv $end
$var wire 32 _ ex_imm [31:0] $end
$var wire 32 ` ex_final_result [31:0] $end
$var wire 32 a ex_branch_target [31:0] $end
$var wire 1 b ex_branch $end
$var wire 4 c ex_alu_sel [3:0] $end
$var wire 1 d ex_RW $end
$var wire 1 e ex_MW $end
$var wire 1 f ex_MR $end
$var wire 1 g ex_ALUsrc $end
$var wire 1 h cu_branch $end
$var wire 1 i cu_RegWrite $end
$var wire 1 j cu_MemWrite $end
$var wire 1 k cu_MemRead $end
$var wire 1 l cu_ALUsrc $end
$var wire 2 m cu_ALUop [1:0] $end
$var wire 32 n alu_result [31:0] $end
$var wire 32 o alu_in_B_pre [31:0] $end
$var wire 32 p alu_in_B [31:0] $end
$var wire 32 q alu_in_A [31:0] $end
$var wire 4 r alu_control [3:0] $end
$var wire 1 s alu_Z $end
$var parameter 32 t DMEM_DEPTH $end
$var parameter 32 u IMEM_DEPTH $end
$var parameter 112 v IMEM_FILE $end
$scope module ALUCTRL $end
$var wire 7 w funct7 [6:0] $end
$var wire 3 x funct3 [2:0] $end
$var wire 2 y ALUop [1:0] $end
$var reg 4 z ALU_control [3:0] $end
$var reg 1 H is_muldiv $end
$var reg 3 { muldiv_op [2:0] $end
$upscope $end
$scope module CU $end
$var wire 7 | opcode [6:0] $end
$var reg 2 } ALUop [1:0] $end
$var reg 1 l ALUsrc $end
$var reg 1 k MemRead $end
$var reg 1 j MemWrite $end
$var reg 1 i RegWrite $end
$var reg 1 h branch $end
$upscope $end
$scope module DEC $end
$var wire 5 ~ rs2 [4:0] $end
$var wire 5 !" rs1 [4:0] $end
$var wire 5 "" rd [4:0] $end
$var wire 32 #" pc [31:0] $end
$var wire 7 $" opcode [6:0] $end
$var wire 32 %" instr_input [31:0] $end
$var wire 7 &" funct7 [6:0] $end
$var wire 3 '" funct3 [2:0] $end
$var reg 32 (" imm [31:0] $end
$upscope $end
$scope module DMEM $end
$var wire 1 $ clk $end
$var wire 1 % rst $end
$var wire 32 )" write_data_i [31:0] $end
$var wire 32 *" addr_i [31:0] $end
$var wire 1 F MemWrite $end
$var wire 1 G MemRead $end
$var parameter 32 +" DEPTH $end
$var reg 32 ," read_data_o [31:0] $end
$var integer 32 -" i [31:0] $end
$upscope $end
$scope module EX_MEM $end
$var wire 1 $ clk $end
$var wire 1 ." enable $end
$var wire 32 /" ex_alu_result [31:0] $end
$var wire 1 ) ex_branch_taken $end
$var wire 32 0" ex_branch_target [31:0] $end
$var wire 1 1" flush $end
$var wire 1 % rst $end
$var wire 32 2" ex_rs2_val [31:0] $end
$var wire 5 3" ex_rd [4:0] $end
$var wire 1 b ex_branch $end
$var wire 1 d ex_RW $end
$var wire 1 e ex_MW $end
$var wire 1 f ex_MR $end
$var reg 1 G mem_MR $end
$var reg 1 F mem_MW $end
$var reg 1 E mem_RW $end
$var reg 32 4" mem_alu_result [31:0] $end
$var reg 1 C mem_branch $end
$var reg 1 B mem_branch_taken $end
$var reg 32 5" mem_branch_target [31:0] $end
$var reg 5 6" mem_rd [4:0] $end
$var reg 32 7" mem_rs2_val [31:0] $end
$upscope $end
$scope module FWD $end
$var wire 5 8" mem_rd [4:0] $end
$var wire 1 E mem_regwrite $end
$var wire 1 2 wb_regwrite $end
$var wire 5 9" wb_rd [4:0] $end
$var wire 5 :" ex_rs2 [4:0] $end
$var wire 5 ;" ex_rs1 [4:0] $end
$var reg 2 <" forwardA [1:0] $end
$var reg 2 =" forwardB [1:0] $end
$upscope $end
$scope module HAZ $end
$var wire 1 $ clk $end
$var wire 1 H id_is_muldiv $end
$var wire 5 >" id_rs1 [4:0] $end
$var wire 5 ?" id_rs2 [4:0] $end
$var wire 1 % rst $end
$var wire 1 = muldiv_busy $end
$var wire 5 @" ex_rd [4:0] $end
$var wire 1 f ex_memread $end
$var reg 1 T id_ex_flush $end
$var reg 1 J if_id_write $end
$var reg 1 A" mem_stall $end
$var reg 1 7 pc_write $end
$var reg 1 4 stall $end
$upscope $end
$scope module ID_EX $end
$var wire 1 $ clk $end
$var wire 1 * enable $end
$var wire 1 + flush $end
$var wire 1 l id_ALUsrc $end
$var wire 1 k id_MR $end
$var wire 1 j id_MW $end
$var wire 1 i id_RW $end
$var wire 4 B" id_alu_sel [3:0] $end
$var wire 1 h id_branch $end
$var wire 32 C" id_imm [31:0] $end
$var wire 1 H id_is_muldiv $end
$var wire 3 D" id_muldiv_op [2:0] $end
$var wire 5 E" id_rd [4:0] $end
$var wire 5 F" id_rs1 [4:0] $end
$var wire 5 G" id_rs2 [4:0] $end
$var wire 1 % rst $end
$var wire 32 H" id_rs2_val [31:0] $end
$var wire 32 I" id_rs1_val [31:0] $end
$var wire 32 J" id_pc [31:0] $end
$var reg 1 g ex_ALUsrc $end
$var reg 1 f ex_MR $end
$var reg 1 e ex_MW $end
$var reg 1 d ex_RW $end
$var reg 4 K" ex_alu_sel [3:0] $end
$var reg 1 b ex_branch $end
$var reg 32 L" ex_imm [31:0] $end
$var reg 1 ^ ex_is_muldiv $end
$var reg 3 M" ex_muldiv_op [2:0] $end
$var reg 32 N" ex_pc [31:0] $end
$var reg 5 O" ex_rd [4:0] $end
$var reg 5 P" ex_rs1 [4:0] $end
$var reg 32 Q" ex_rs1_val [31:0] $end
$var reg 5 R" ex_rs2 [4:0] $end
$var reg 32 S" ex_rs2_val [31:0] $end
$upscope $end
$scope module IF_ID $end
$var wire 1 $ clk $end
$var wire 1 J enable $end
$var wire 1 , flush $end
$var wire 1 % rst $end
$var wire 32 T" if_pc [31:0] $end
$var wire 32 U" if_instr [31:0] $end
$var reg 32 V" id_instr [31:0] $end
$var reg 32 W" id_pc [31:0] $end
$upscope $end
$scope module IMEM $end
$var wire 1 X" enable $end
$var wire 32 Y" addr_i [31:0] $end
$var parameter 32 Z" DEPTH $end
$var parameter 112 [" IN_FILE $end
$var reg 32 \" instr_o [31:0] $end
$upscope $end
$scope module MEM_WB $end
$var wire 1 $ clk $end
$var wire 1 ]" enable $end
$var wire 1 ^" flush $end
$var wire 1 G mem_MR $end
$var wire 1 E mem_RW $end
$var wire 32 _" mem_alu_result [31:0] $end
$var wire 5 `" mem_rd [4:0] $end
$var wire 32 a" mem_read_data [31:0] $end
$var wire 1 % rst $end
$var reg 1 3 wb_MR $end
$var reg 1 2 wb_RW $end
$var reg 32 b" wb_alu_result [31:0] $end
$var reg 5 c" wb_rd [4:0] $end
$var reg 32 d" wb_read_data [31:0] $end
$upscope $end
$scope module MULDIV $end
$var wire 1 $ clk $end
$var wire 3 e" opcode [2:0] $end
$var wire 32 f" rs1 [31:0] $end
$var wire 32 g" rs2 [31:0] $end
$var wire 1 % rst $end
$var wire 1 - start $end
$var parameter 3 h" DIV $end
$var parameter 3 i" DONE $end
$var parameter 3 j" IDLE $end
$var parameter 3 k" INIT $end
$var reg 1 = busy $end
$var reg 6 l" count [5:0] $end
$var reg 32 m" dividend [31:0] $end
$var reg 32 n" divisor [31:0] $end
$var reg 32 o" mul_result [31:0] $end
$var reg 32 p" quotient [31:0] $end
$var reg 1 ; ready $end
$var reg 32 q" remainder [31:0] $end
$var reg 32 r" result [31:0] $end
$var reg 1 s" signA $end
$var reg 1 t" signB $end
$var reg 3 u" state [2:0] $end
$upscope $end
$scope module PC $end
$var wire 1 $ clk $end
$var wire 32 v" next_pc [31:0] $end
$var wire 1 7 pc_write $end
$var wire 1 % rst $end
$var reg 32 w" pc_out [31:0] $end
$upscope $end
$scope module RF $end
$var wire 1 $ clk $end
$var wire 5 x" rd_addr [4:0] $end
$var wire 32 y" rd_data [31:0] $end
$var wire 5 z" rs1_addr [4:0] $end
$var wire 5 {" rs2_addr [4:0] $end
$var wire 1 % rst $end
$var wire 1 2 write_enable $end
$var reg 32 |" rs1_data [31:0] $end
$var reg 32 }" rs2_data [31:0] $end
$var integer 32 ~" i [31:0] $end
$upscope $end
$scope module alu_unit $end
$var wire 32 !# A [31:0] $end
$var wire 32 "# B [31:0] $end
$var wire 4 ## opcode [3:0] $end
$var reg 1 s Z $end
$var reg 32 $# result [31:0] $end
$upscope $end
$upscope $end
$upscope $end
$enddefinitions $end
$comment Show the parameter values. $end
$dumpall
b1 k"
b0 j"
b11 i"
b10 h"
b110011001101001011011100110000101101100010111110111010001100101011100110111010000101110011010000110010101111000 ["
b1100 Z"
b1100 +"
b110011001101001011011100110000101101100010111110111010001100101011100110111010000101110011010000110010101111000 v
b1100 u
b1100 t
$end
#0
$dumpvars
bx $#
bx ##
bx "#
bx !#
bx ~"
bx }"
bx |"
bx {"
bx z"
bx y"
bx x"
bx w"
bx v"
bx u"
xt"
xs"
bx r"
bx q"
bx p"
bx o"
bx n"
bx m"
bx l"
bx g"
bx f"
bx e"
bx d"
bx c"
bx b"
bx a"
bx `"
bx _"
0^"
1]"
bx \"
bx Y"
1X"
bx W"
bx V"
bx U"
bx T"
bx S"
bx R"
bx Q"
bx P"
bx O"
bx N"
bx M"
bx L"
bx K"
bx J"
bx I"
bx H"
bx G"
bx F"
bx E"
bx D"
bx C"
bx B"
xA"
bx @"
bx ?"
bx >"
bx ="
bx <"
bx ;"
bx :"
bx 9"
bx 8"
bx 7"
bx 6"
bx 5"
bx 4"
bx 3"
bx 2"
01"
bx 0"
bx /"
1."
bx -"
bx ,"
bx *"
bx )"
bx ("
bx '"
bx &"
bx %"
bx $"
bx #"
bx ""
bx !"
bx ~
bx }
bx |
bx {
bx z
bx y
bx x
bx w
xs
bx r
bx q
bx p
bx o
bx n
bx m
xl
xk
xj
xi
xh
xg
xf
xe
xd
bx c
xb
bx a
bx `
bx _
x^
bx ]
bx \
bx [
bx Z
bx Y
bx X
bx W
bx V
bx U
xT
bx S
bx R
bx Q
bx P
bx O
bx N
bx M
bx L
bx K
xJ
bx I
xH
xG
xF
xE
bx D
xC
xB
bx A
bx @
bx ?
bx >
x=
bx <
x;
bx :
bx 9
bx 8
x7
bx 6
bx 5
x4
x3
x2
bx 1
bx 0
bx /
bx .
x-
x,
x+
x*
x)
bx (
bx '
bx &
1%
0$
bx #
bx "
bx !
$end
#5000
b0 `
b0 /"
b0 n
b0 $#
b0 p
b0 "#
b0 5
b0 H"
b0 }"
b0 6
b0 I"
b0 |"
b0 <
b0 {
b0 D"
0H
b0 r
b0 z
b0 B"
b10 m
b10 y
b10 }
1i
0h
1l
0k
0j
b0 o
b0 q
b0 !#
1*
b10100000000000010010011 I
b10100000000000010010011 U"
b10100000000000010010011 \"
b0 R
b0 w
b0 &"
b0 K
b0 ~
b0 ?"
b0 G"
b0 {"
b0 L
b0 !"
b0 >"
b0 F"
b0 z"
b0 S
b0 x
b0 '"
b0 M
b0 ""
b0 E"
b10011 O
b10011 |
b10011 $"
b0 Q
b0 ("
b0 C"
1s
0)
b0 o"
0-
0A"
0,
0+
0T
1J
17
04
b0 ?
b0 ,"
b0 a"
b0 U
b0 ="
b0 V
b0 <"
b0 0
b0 y"
b100 9
b100 v"
b0 !
b0 (
b0 8
b0 T"
b0 Y"
b0 w"
b10011 "
b10011 '
b10011 P
b10011 %"
b10011 V"
b0 N
b0 #"
b0 J"
b0 W"
b0 ]
b0 M"
b0 e"
b0 c
b0 K"
b0 ##
0^
0g
0b
0e
0f
0d
b0 X
b0 :"
b0 R"
b0 Z
b0 ;"
b0 P"
b0 [
b0 3"
b0 @"
b0 O"
b0 a
b0 0"
b0 _
b0 L"
b0 W
b0 2"
b0 S"
b0 g"
b0 Y
b0 Q"
b0 f"
b0 \
b0 N"
b0 q"
b0 p"
b0 :
b0 r"
0;
0=
b0 u"
0B
b0 A
b0 5"
0C
0F
0G
0E
b0 @
b0 6"
b0 8"
b0 `"
b0 >
b0 )"
b0 7"
b0 #
b0 &
b0 D
b0 *"
b0 4"
b0 _"
03
02
b0 /
b0 9"
b0 c"
b0 x"
b0 .
b0 d"
b0 1
b0 b"
b100000 ~"
b1100 -"
1$
#10000
0$
#15000
b1100 -"
b100000 ~"
1$
#20000
0$
0%
#25000
b101000000000000100010011 I
b101000000000000100010011 U"
b101000000000000100010011 \"
b101 K
b101 ~
b101 ?"
b101 G"
b101 {"
b1 M
b1 ""
b1 E"
b101 Q
b101 ("
b101 C"
b1000 9
b1000 v"
b100 !
b100 (
b100 8
b100 T"
b100 Y"
b100 w"
b10100000000000010010011 "
b10100000000000010010011 '
b10100000000000010010011 P
b10100000000000010010011 %"
b10100000000000010010011 V"
1g
1d
1$
#30000
0$
#35000
b101 `
b101 /"
b101 n
b101 $#
0s
b101 p
b101 "#
b1010 K
b1010 ~
b1010 ?"
b1010 G"
b1010 {"
b10 M
b10 ""
b10 E"
b1010 Q
b1010 ("
b1010 C"
b1000001000000110110011 I
b1000001000000110110011 U"
b1000001000000110110011 \"
1E
b101 X
b101 :"
b101 R"
b1 [
b1 3"
b1 @"
b1 O"
b101 a
b101 0"
b101 _
b101 L"
b101000000000000100010011 "
b101000000000000100010011 '
b101000000000000100010011 P
b101000000000000100010011 %"
b101000000000000100010011 V"
b100 N
b100 #"
b100 J"
b100 W"
b1100 9
b1100 v"
b1000 !
b1000 (
b1000 8
b1000 T"
b1000 Y"
b1000 w"
1$
#40000
0$
#45000
b1010 `
b1010 /"
b10 m
b10 y
b10 }
1i
0l
b1010 n
b1010 $#
b11111111100000110000001000010011 I
b11111111100000110000001000010011 U"
b11111111100000110000001000010011 \"
b10 K
b10 ~
b10 ?"
b10 G"
b10 {"
b1 L
b1 !"
b1 >"
b1 F"
b1 z"
b11 M
b11 ""
b11 E"
b110011 O
b110011 |
b110011 $"
b0 Q
b0 ("
b0 C"
b1010 p
b1010 "#
b10000 9
b10000 v"
b1100 !
b1100 (
b1100 8
b1100 T"
b1100 Y"
b1100 w"
b1000001000000110110011 "
b1000001000000110110011 '
b1000001000000110110011 P
b1000001000000110110011 %"
b1000001000000110110011 V"
b1000 N
b1000 #"
b1000 J"
b1000 W"
b1010 X
b1010 :"
b1010 R"
b10 [
b10 3"
b10 @"
b10 O"
b1010 _
b1010 L"
b1110 a
b1110 0"
b100 \
b100 N"
b101 A
b101 5"
b1 @
b1 6"
b1 8"
b1 `"
b101 #
b101 &
b101 D
b101 *"
b101 4"
b101 _"
12
1$
#50000
0$
#55000
b101 q
b101 !#
b1111 `
b1111 /"
b1010 o
0s
b1111 n
b1111 $#
1l
b10 m
b10 y
b10 }
1i
b11111111111111111111111111111000 Q
b11111111111111111111111111111000 ("
b11111111111111111111111111111000 C"
b101 0
b101 y"
b10 U
b10 ="
b1 V
b1 <"
b1010 p
b1010 "#
b1111111 R
b1111111 w
b1111111 &"
b11000 K
b11000 ~
b11000 ?"
b11000 G"
b11000 {"
b110 L
b110 !"
b110 >"
b110 F"
b110 z"
b100 M
b100 ""
b100 E"
b10011 O
b10011 |
b10011 $"
b1000100001001010010011 I
b1000100001001010010011 U"
b1000100001001010010011 \"
b1 /
b1 9"
b1 c"
b1 x"
b101 1
b101 b"
b1110 A
b1110 5"
b10 @
b10 6"
b10 8"
b10 `"
b1010 #
b1010 &
b1010 D
b1010 *"
b1010 4"
b1010 _"
0g
b10 X
b10 :"
b10 R"
b1 Z
b1 ;"
b1 P"
b11 [
b11 3"
b11 @"
b11 O"
b0 _
b0 L"
b1000 a
b1000 0"
b1000 \
b1000 N"
b11111111100000110000001000010011 "
b11111111100000110000001000010011 '
b11111111100000110000001000010011 P
b11111111100000110000001000010011 %"
b11111111100000110000001000010011 V"
b1100 N
b1100 #"
b1100 J"
b1100 W"
b10100 9
b10100 v"
b10000 !
b10000 (
b10000 8
b10000 T"
b10000 Y"
b10000 w"
1$
#60000
0$
#65000
b11111111111111111111111111111000 `
b11111111111111111111111111111000 /"
b0 q
b0 !#
b101 r
b101 z
b101 B"
b11111111111111111111111111111000 n
b11111111111111111111111111111000 $#
b10100000010000000100011 I
b10100000010000000100011 U"
b10100000010000000100011 \"
b0 R
b0 w
b0 &"
b10 K
b10 ~
b10 ?"
b10 G"
b10 {"
b100 L
b100 !"
b100 >"
b100 F"
b100 z"
b1 S
b1 x
b1 '"
b101 M
b101 ""
b101 E"
b10 Q
b10 ("
b10 C"
b11111111111111111111111111111000 p
b11111111111111111111111111111000 "#
b0 o
b0 U
b0 ="
b0 V
b0 <"
b1010 0
b1010 y"
b11000 9
b11000 v"
b10100 !
b10100 (
b10100 8
b10100 T"
b10100 Y"
b10100 w"
b1000100001001010010011 "
b1000100001001010010011 '
b1000100001001010010011 P
b1000100001001010010011 %"
b1000100001001010010011 V"
b10000 N
b10000 #"
b10000 J"
b10000 W"
1g
b11000 X
b11000 :"
b11000 R"
b110 Z
b110 ;"
b110 P"
b100 [
b100 3"
b100 @"
b100 O"
b11111111111111111111111111111000 _
b11111111111111111111111111111000 L"
b100 a
b100 0"
b1100 \
b1100 N"
b1000 A
b1000 5"
b11 @
b11 6"
b11 8"
b11 `"
b1111 #
b1111 &
b1111 D
b1111 *"
b1111 4"
b1111 _"
b10 /
b10 9"
b10 c"
b10 x"
b1010 1
b1010 b"
1$
#70000
0$
#75000
b11111111111111111111111111100000 `
b11111111111111111111111111100000 /"
b11111111111111111111111111111000 q
b11111111111111111111111111111000 !#
b0 r
b0 z
b0 B"
1j
b0 m
b0 y
b0 }
0i
1l
b1111 0
b1111 y"
0s
b11111111111111111111111111100000 n
b11111111111111111111111111100000 $#
b10 V
b10 <"
b10 p
b10 "#
b101 K
b101 ~
b101 ?"
b101 G"
b101 {"
b0 L
b0 !"
b0 >"
b0 F"
b0 z"
b10 S
b10 x
b10 '"
b0 M
b0 ""
b0 E"
b100011 O
b100011 |
b100011 $"
b0 Q
b0 ("
b0 C"
b10001010000011 I
b10001010000011 U"
b10001010000011 \"
b11 /
b11 9"
b11 c"
b11 x"
b1111 1
b1111 b"
b100 A
b100 5"
b100 @
b100 6"
b100 8"
b100 `"
b11111111111111111111111111111000 #
b11111111111111111111111111111000 &
b11111111111111111111111111111000 D
b11111111111111111111111111111000 *"
b11111111111111111111111111111000 4"
b11111111111111111111111111111000 _"
b101 c
b101 K"
b101 ##
b10 X
b10 :"
b10 R"
b100 Z
b100 ;"
b100 P"
b101 [
b101 3"
b101 @"
b101 O"
b10 _
b10 L"
b10010 a
b10010 0"
b10000 \
b10000 N"
b10100000010000000100011 "
b10100000010000000100011 '
b10100000010000000100011 P
b10100000010000000100011 %"
b10100000010000000100011 V"
b10100 N
b10100 #"
b10100 J"
b10100 W"
b11100 9
b11100 v"
b11000 !
b11000 (
b11000 8
b11000 T"
b11000 Y"
b11000 w"
1$
#80000
0$
#85000
1k
1i
1l
0j
b0 `
b0 /"
b11111111111111111111111111100000 o
b11000101000010001100011 I
b11000101000010001100011 U"
b11000101000010001100011 \"
b0 K
b0 ~
b0 ?"
b0 G"
b0 {"
b101 M
b101 ""
b101 E"
b11 O
b11 |
b11 $"
b0 Q
b0 ("
b0 C"
1s
b0 n
b0 $#
b0 p
b0 "#
b0 q
b0 !#
b10 U
b10 ="
b0 V
b0 <"
b11111111111111111111111111111000 0
b11111111111111111111111111111000 y"
b100000 9
b100000 v"
b11100 !
b11100 (
b11100 8
b11100 T"
b11100 Y"
b11100 w"
b10001010000011 "
b10001010000011 '
b10001010000011 P
b10001010000011 %"
b10001010000011 V"
b11000 N
b11000 #"
b11000 J"
b11000 W"
b0 c
b0 K"
b0 ##
1e
0d
b101 X
b101 :"
b101 R"
b0 Z
b0 ;"
b0 P"
b0 [
b0 3"
b0 @"
b0 O"
b0 _
b0 L"
b10100 a
b10100 0"
b10100 \
b10100 N"
b10010 A
b10010 5"
b101 @
b101 6"
b101 8"
b101 `"
b11111111111111111111111111100000 #
b11111111111111111111111111100000 &
b11111111111111111111111111100000 D
b11111111111111111111111111100000 *"
b11111111111111111111111111100000 4"
b11111111111111111111111111100000 _"
b100 /
b100 9"
b100 c"
b100 x"
b11111111111111111111111111111000 1
b11111111111111111111111111111000 b"
1$
#90000
0$
#95000
0*
b1 r
b1 z
b1 B"
b1 m
b1 y
b1 }
1h
0i
0l
0k
b11111111111111111111111111100000 0
b11111111111111111111111111100000 y"
b0 o
b0 U
b0 ="
1,
1+
1T
0J
07
14
b110 K
b110 ~
b110 ?"
b110 G"
b110 {"
b101 L
b101 !"
b101 >"
b101 F"
b101 z"
b0 S
b0 x
b0 '"
b1000 M
b1000 ""
b1000 E"
b1100011 O
b1100011 |
b1100011 $"
b1000 Q
b1000 ("
b1000 C"
b1101111 I
b1101111 U"
b1101111 \"
b101 /
b101 9"
b101 c"
b101 x"
b11111111111111111111111111100000 1
b11111111111111111111111111100000 b"
b10100 A
b10100 5"
1F
0E
b0 @
b0 6"
b0 8"
b0 `"
b0 #
b0 &
b0 D
b0 *"
b0 4"
b0 _"
0e
1f
1d
b0 X
b0 :"
b0 R"
b101 [
b101 3"
b101 @"
b101 O"
b11000 a
b11000 0"
b11000 \
b11000 N"
b11000101000010001100011 "
b11000101000010001100011 '
b11000101000010001100011 P
b11000101000010001100011 %"
b11000101000010001100011 V"
b11100 N
b11100 #"
b11100 J"
b11100 W"
b100100 9
b100100 v"
b100000 !
b100000 (
b100000 8
b100000 T"
b100000 Y"
b100000 w"
1$
#100000
0$
#105000
b0 r
b0 z
b0 B"
1l
1i
b10 m
b10 y
b10 }
0h
1*
b0 K
b0 ~
b0 ?"
b0 G"
b0 {"
b0 L
b0 !"
b0 >"
b0 F"
b0 z"
b0 M
b0 ""
b0 E"
b10011 O
b10011 |
b10011 $"
b0 Q
b0 ("
b0 C"
b0 6
b0 I"
b0 |"
0,
0+
0T
1J
17
04
b0 0
b0 y"
b10011 "
b10011 '
b10011 P
b10011 %"
b10011 V"
b0 N
b0 #"
b0 J"
b0 W"
0g
0f
0d
b0 [
b0 3"
b0 @"
b0 O"
b0 a
b0 0"
b0 \
b0 N"
b11000 A
b11000 5"
0F
1G
1E
b101 @
b101 6"
b101 8"
b101 `"
02
b0 /
b0 9"
b0 c"
b0 x"
b0 1
b0 b"
1$
#110000
0$
#115000
b0 m
b0 y
b0 }
1i
1l
b1101111 O
b1101111 |
b1101111 $"
13
12
b101 /
b101 9"
b101 c"
b101 x"
b0 A
b0 5"
0G
0E
b0 @
b0 6"
b0 8"
b0 `"
1g
1d
b1101111 "
b1101111 '
b1101111 P
b1101111 %"
b1101111 V"
b100000 N
b100000 #"
b100000 J"
b100000 W"
b101000 9
b101000 v"
b100100 !
b100100 (
b100100 8
b100100 T"
b100100 Y"
b100100 w"
1$
#120000
0$
#125000
bx I
bx U"
bx \"
b101100 9
b101100 v"
b101000 !
b101000 (
b101000 8
b101000 T"
b101000 Y"
b101000 w"
b100100 N
b100100 #"
b100100 J"
b100100 W"
b100000 a
b100000 0"
b100000 \
b100000 N"
1E
03
02
b0 /
b0 9"
b0 c"
b0 x"
1$
#130000
0$
#135000
bx 5
bx H"
bx }"
bx 6
bx I"
bx |"
0i
0l
bx R
bx w
bx &"
bx K
bx ~
bx ?"
bx G"
bx {"
bx L
bx !"
bx >"
bx F"
bx z"
bx S
bx x
bx '"
bx M
bx ""
bx E"
bx O
bx |
bx $"
b0 Q
b0 ("
b0 C"
12
b100000 A
b100000 5"
b100100 a
b100100 0"
b100100 \
b100100 N"
bx "
bx '
bx P
bx %"
bx V"
b101000 N
b101000 #"
b101000 J"
b101000 W"
b110000 9
b110000 v"
b101100 !
b101100 (
b101100 8
b101100 T"
b101100 Y"
b101100 w"
1$
#140000
0$
#145000
bx `
bx /"
bx p
bx "#
bx n
bx $#
xs
bx o
bx q
bx !#
bx o"
b110100 9
b110100 v"
b110000 !
b110000 (
b110000 8
b110000 T"
b110000 Y"
b110000 w"
b101100 N
b101100 #"
b101100 J"
b101100 W"
0g
0d
bx X
bx :"
bx R"
bx Z
bx ;"
bx P"
bx [
bx 3"
bx @"
bx O"
bx W
bx 2"
bx S"
bx g"
bx Y
bx Q"
bx f"
b101000 a
b101000 0"
b101000 \
b101000 N"
b100100 A
b100100 5"
1$
#150000
0$
#155000
b101000 A
b101000 5"
0E
bx @
bx 6"
bx 8"
bx `"
bx >
bx )"
bx 7"
bx #
bx &
bx D
bx *"
bx 4"
bx _"
b101100 a
b101100 0"
b101100 \
b101100 N"
b110000 N
b110000 #"
b110000 J"
b110000 W"
b111000 9
b111000 v"
b110100 !
b110100 (
b110100 8
b110100 T"
b110100 Y"
b110100 w"
1$
#160000
0$
#165000
bx 0
bx y"
b111100 9
b111100 v"
b111000 !
b111000 (
b111000 8
b111000 T"
b111000 Y"
b111000 w"
b110100 N
b110100 #"
b110100 J"
b110100 W"
b110000 a
b110000 0"
b110000 \
b110000 N"
b101100 A
b101100 5"
02
bx /
bx 9"
bx c"
bx x"
bx 1
bx b"
1$
#170000
0$
#175000
b110000 A
b110000 5"
b110100 a
b110100 0"
b110100 \
b110100 N"
b111000 N
b111000 #"
b111000 J"
b111000 W"
b1000000 9
b1000000 v"
b111100 !
b111100 (
b111100 8
b111100 T"
b111100 Y"
b111100 w"
1$
#180000
0$
#185000
b1000100 9
b1000100 v"
b1000000 !
b1000000 (
b1000000 8
b1000000 T"
b1000000 Y"
b1000000 w"
b111100 N
b111100 #"
b111100 J"
b111100 W"
b111000 a
b111000 0"
b111000 \
b111000 N"
b110100 A
b110100 5"
1$
#190000
0$
#195000
b111000 A
b111000 5"
b111100 a
b111100 0"
b111100 \
b111100 N"
b1000000 N
b1000000 #"
b1000000 J"
b1000000 W"
b1001000 9
b1001000 v"
b1000100 !
b1000100 (
b1000100 8
b1000100 T"
b1000100 Y"
b1000100 w"
1$
#200000
0$
#205000
b1001100 9
b1001100 v"
b1001000 !
b1001000 (
b1001000 8
b1001000 T"
b1001000 Y"
b1001000 w"
b1000100 N
b1000100 #"
b1000100 J"
b1000100 W"
b1000000 a
b1000000 0"
b1000000 \
b1000000 N"
b111100 A
b111100 5"
1$
#210000
0$
#215000
b1000000 A
b1000000 5"
b1000100 a
b1000100 0"
b1000100 \
b1000100 N"
b1001000 N
b1001000 #"
b1001000 J"
b1001000 W"
b1010000 9
b1010000 v"
b1001100 !
b1001100 (
b1001100 8
b1001100 T"
b1001100 Y"
b1001100 w"
1$
#220000
0$
#225000
b1010100 9
b1010100 v"
b1010000 !
b1010000 (
b1010000 8
b1010000 T"
b1010000 Y"
b1010000 w"
b1001100 N
b1001100 #"
b1001100 J"
b1001100 W"
b1001000 a
b1001000 0"
b1001000 \
b1001000 N"
b1000100 A
b1000100 5"
1$
#230000
0$
#235000
b1001000 A
b1001000 5"
b1001100 a
b1001100 0"
b1001100 \
b1001100 N"
b1010000 N
b1010000 #"
b1010000 J"
b1010000 W"
b1011000 9
b1011000 v"
b1010100 !
b1010100 (
b1010100 8
b1010100 T"
b1010100 Y"
b1010100 w"
1$
#240000
0$
#245000
b1011100 9
b1011100 v"
b1011000 !
b1011000 (
b1011000 8
b1011000 T"
b1011000 Y"
b1011000 w"
b1010100 N
b1010100 #"
b1010100 J"
b1010100 W"
b1010000 a
b1010000 0"
b1010000 \
b1010000 N"
b1001100 A
b1001100 5"
1$
#250000
0$
